[
	{
		"_id": "a-10",
		"_parentId": "co-10",
		"_type": "article",
		"_classes": "banner_01",
		"title": "a-10",
		"displayTitle": "",
		"body": ""
	},
    {
		"_id": "a-20",
		"_parentId": "co-20",
		"_type": "article",
		"_classes": "banner_01",
		"title": "a-20",
		"displayTitle": "",
		"body": ""
	},
    {
		"_id": "a-30",
		"_parentId": "co-30",
		"_type": "article",
		"_classes": "banner_01",
		"title": "a-30",
		"displayTitle": "",
		"body": ""
	},
    {
		"_id": "a-40",
		"_parentId": "co-40",
		"_type": "article",
		"_classes": "banner_01",
		"title": "a-40",
		"displayTitle": "",
		"body": ""
	},
    {
		"_id": "a-50",
		"_parentId": "co-50",
		"_type": "article",
		"_classes": "banner_01",
		"title": "a-50",
		"displayTitle": "",
		"body": ""
	},
    {
		"_id": "a-60",
		"_parentId": "co-60",
		"_type": "article",
		"_classes": "banner_01",
		"title": "a-60",
		"displayTitle": "",
		"body": ""
	}
	
]
