﻿[
	{
		"_id": "co-10",
		"_parentId": "course",
		"_type": "page",
		"_classes": "",
		"height":"570",
		"title": "Introdução",
		"displayTitle": "Introdução",
		"pageBody": "Este curso mostrará como os anúncios de vídeo in-stream podem gerar uma duração maior da visualização do anúncio, o que pode ajudar você a alcançar as metas da sua campanha de marca.",
		"body": "Este curso mostrará como os anúncios de vídeo in-stream podem gerar uma duração maior da visualização do anúncio, o que pode ajudar você a alcançar as metas da sua campanha de marca.",
        "_graphic": {
			"src": "course/en/images/co_1.jpg",
			"alt": "Visão geral"
		},
		"linkText": "Visualizar",
		"durationLabel": "Duração:",
		"duration": "3 min",
		"_pageLevelProgress": {
			"_isEnabled": true
		}
	},
    {
		"_id": "co-20",
		"_parentId": "course",
		"_type": "page",
		"_classes": "",
		"height":"570",
		"title": "Anúncios de vídeo para o modo como as pessoas assistem",
		"displayTitle": "Anúncios de vídeo para o modo como as pessoas assistem",
		"pageBody": "Saiba como os anúncios de vídeo in-stream podem ajudar você a alcançar seu público onde e como ele consome conteúdo de vídeo.",
		"body": "Saiba como os anúncios de vídeo in-stream podem ajudar você a alcançar seu público onde e como ele consome conteúdo de vídeo.",
		"_graphic": {
			"src": "course/en/images/co_2.jpg",
			"alt": "Anúncios de vídeo para o modo como as pessoas assistem"
		},
		"linkText": "Visualizar",
		"durationLabel": "Duração:",
		"duration": "3 min",
		"_pageLevelProgress": {
			"_isEnabled": true
        }
	},
    {
		"_id": "co-30",
		"_parentId": "course",
		"_type": "page",
		"_classes": "",
		"height":"570",
		"title": "Objetivos e posicionamentos de anúncios",
		"displayTitle": "Objetivos e posicionamentos de anúncios",
		"pageBody": " ",
		"body": "Nesta seção, exploraremos quais objetivos de campanha, opções de posicionamento e controles de segurança da marca estão disponíveis para anúncios de vídeo in-stream.",
		"_graphic": {
			"src": "course/en/images/co_3.jpg",
			"alt": "Objetivos e posicionamentos de anúncios"
		},
		"linkText": "Visualizar",
		"durationLabel": "Duração:",
		"duration": "4 min",
		"_pageLevelProgress": {
			"_isEnabled": true
        }
	},
    {
		"_id": "co-40",
		"_parentId": "course",
		"_type": "page",
		"_classes": "",
		"height":"570",
		"title": "Anúncios de vídeo in-stream: passo a passo",
		"displayTitle": "Anúncios de vídeo in-stream: passo a passo",
		"pageBody": " ",
		"body": "Esta seção orienta você sobre como iniciar uma campanha de anúncios de vídeo in-stream.",
		"_graphic": {
			"src": "course/en/images/co_4.jpg",
			"alt": "Anúncios de vídeo in-stream: passo a passo"
		},
		"linkText": "Visualizar",
		"durationLabel": "Duração:",
		"duration": "5 min",
		"_pageLevelProgress": {
			"_isEnabled": true
        }
	},
    {
		"_id": "co-50",
		"_parentId": "course",
		"_type": "page",
		"_classes": "",
		"height":"570",
        "title": "Caso de sucesso",
		"displayTitle": "Caso de sucesso",
		"pageBody": " ",
		"body": "Veja como um anunciante usou com êxito o vídeo in-stream para alcançar o público e impulsionar a marca.",
		"_graphic": {
			"src": "course/en/images/co_5.jpg",
			"alt": "Casos de sucesso"
		},
		"linkText": "Visualizar",
		"durationLabel": "Duração:",
		"duration": "2 min",
		"_pageLevelProgress": {
			"_isEnabled": true
        }
	},
    {
		"_id": "co-60",
		"_parentId": "course",
		"_type": "page",
		"_classes": "",
		"height":"570",
        "title": "Revisão e verificação de conhecimento",
		"displayTitle": "Revisão e verificação de conhecimento",
		"pageBody": " ",
		"body": "Abordamos diversos tópicos neste curso, então vamos revisar tudo o que você aprendeu.",
		"_graphic": {
			"src": "course/en/images/co_6.jpg",
			"alt": "Revisão e verificação de conhecimento"
		},
		"linkText": "Visualizar",
		"durationLabel": "Duração:",
		"duration": "3 min",
		"_pageLevelProgress": {
			"_isEnabled": true
        }
	}
]
